^E:\ПОЛІТЕХ\АС\ЛАБА 3\LABA_3\TASK1\X64\DEBUG\TASK1.OBJ
E:\Політех\ас\лаба 3\LABA_3\X64\DEBUG\TASK1.EXE
E:\Політех\ас\лаба 3\LABA_3\TASK1\X64\DEBUG\TASK1.ILK
E:\Політех\ас\лаба 3\LABA_3\X64\DEBUG\TASK1.PDB
